…
    subject_id = str_remove_all(subject_id, "_"),
    group = str_replace(group,"con","control"),
    group = str_replace(group,"exp","experiment")
  )%>%
  pivot_longer(
    week_1:week_8,
    names_prefix = "week_",
    names_to = "week",
    values_to = "weekly observations"
  )%>%
  mutate(week = as.numeric(week))
tidy_lda
```

    ## # A tibble: 160 x 4
    ##    group   subject_id  week `weekly observations`
    ##    <chr>   <chr>      <dbl>                 <dbl>
    ##  1 control 01             1                  0.2 
    ##  2 control 01             2                 -1.31
    ##  3 control 01             3                  0.66
    ##  4 control 01             4                  1.96
    ##  5 control 01             5                  0.23
    ##  6 control 01             6                  1.09
    ##  7 control 01             7                  0.05
    ##  8 control 01             8                  1.94
    ##  9 control 02             1                  1.13
    ## 10 control 02             2                 -0.88
    ## # … with 150 more rows
…
results_mu_0 = vector("list", n_sim)

for(i in 1 : n_sim){
  
  results_mu_0[[i]] = t_test_mu_0(mu = mu_0)
  
}

sim_mu_0 = bind_rows(results_mu_0)
sim_mu_0
```

    ## # A tibble: 5,000 x 3
    ##    mu_estimated  p_val    mu
    ##           <dbl>  <dbl> <dbl>
    ##  1       -0.357 0.655      0
    ##  2        1.03  0.189      0
    ##  3       -0.965 0.462      0
    ##  4       -0.704 0.370      0
    ##  5        1.27  0.185      0
    ##  6        1.62  0.0655     0
    ##  7       -2.09  0.0638     0
    ##  8        0.341 0.785      0
    ##  9       -1.32  0.0895     0
    ## 10        0.128 0.859      0
    ## # … with 4,990 more rows
…
sim_6_mu = vector("list", 6)

for(i in 1:6){
  
  sim_6_mu[[i]] = sim_t_test(mu = i)
  
}

  results_all = bind_rows(sim_6_mu)

  results_all
```

    ## # A tibble: 30,000 x 3
    ##    mu_estimated   p_val    mu
    ##           <dbl>   <dbl> <int>
    ##  1       0.643  0.422       1
    ##  2       2.03   0.0131      1
    ##  3       0.0351 0.979       1
    ##  4       0.296  0.705       1
    ##  5       2.27   0.0217      1
    ##  6       2.62   0.00432     1
    ##  7      -1.09   0.323       1
    ##  8       1.34   0.288       1
    ##  9      -0.325  0.670       1
    ## 10       1.13   0.124       1
    ## # … with 29,990 more rows

For the plot, we combine the mu = 0 to make a complete dataset:

``` r
sim_all = bind_rows(results_all, sim_mu_0)
sim_all
```

    ## # A tibble: 35,000 x 3
    ##    mu_estimated   p_val    mu
    ##           <dbl>   <dbl> <dbl>
    ##  1       0.643  0.422       1
    ##  2       2.03   0.0131      1
    ##  3       0.0351 0.979       1
    ##  4       0.296  0.705       1
    ##  5       2.27   0.0217      1
    ##  6       2.62   0.00432     1
    ##  7      -1.09   0.323       1
    ##  8       1.34   0.288       1
    ##  9      -0.325  0.670       1
    ## 10       1.13   0.124       1
    ## # … with 34,990 more rows
…
